Dylyr
…
    intersect, setdiff, setequal, union

Código

library(gapminder)
library(tidyr)

1 Select only the columns country, year, and lifeExp.

Código

gapminder %>%
  select(country, year, lifeExp)

# A tibble: 1,704 × 3
   country      year lifeExp
   <fct>       <int>   <dbl>
 1 Afghanistan  1952    28.8
 2 Afghanistan  1957    30.3
 3 Afghanistan  1962    32.0
 4 Afghanistan  1967    34.0
 5 Afghanistan  1972    36.1
 6 Afghanistan  1977    38.4
 7 Afghanistan  1982    39.9
 8 Afghanistan  1987    40.8
 9 Afghanistan  1992    41.7
10 Afghanistan  1997    41.8
# ℹ 1,694 more rows

Solo se selcciona las columnas necesarias para enfocarnos en la ezperanza de vida por pais y año.

2 Filter the dataset to show only observations from the year 2007.

Código

gapminder %>%
  filter(year == 2007)

# A tibble: 142 × 6
   country     continent  year lifeExp       pop gdpPercap
   <fct>       <fct>     <int>   <dbl>     <int>     <dbl>
 1 Afghanistan Asia       2007    43.8  31889923      975.
 2 Albania     Europe     2007    76.4   3600523     5937.
 3 Algeria     Africa     2007    72.3  33333216     6223.
 4 Angola      Africa     2007    42.7  12420476     4797.
 5 Argentina   Americas   2007    75.3  40301927    12779.
 6 Australia   Oceania    2007    81.2  20434176    34435.
 7 Austria     Europe     2007    79.8   8199783    36126.
 8 Bahrain     Asia       2007    75.6    708573    29796.
 9 Bangladesh  Asia       2007    64.1 150448339     1391.
10 Belgium     Europe     2007    79.4  10392226    33693.
# ℹ 132 more rows

Aquí solo me enfoco en los datos del año 2007 para enfocarme en lo más reciente.

3 Filter the dataset for countries in Asia.

Código

gapminder %>%
  filter(continent=="Asia")

# A tibble: 396 × 6
   country     continent  year lifeExp      pop gdpPercap
   <fct>       <fct>     <int>   <dbl>    <int>     <dbl>
 1 Afghanistan Asia       1952    28.8  8425333      779.
 2 Afghanistan Asia       1957    30.3  9240934      821.
 3 Afghanistan Asia       1962    32.0 10267083      853.
 4 Afghanistan Asia       1967    34.0 11537966      836.
 5 Afghanistan Asia       1972    36.1 13079460      740.
 6 Afghanistan Asia       1977    38.4 14880372      786.
 7 Afghanistan Asia       1982    39.9 12881816      978.
 8 Afghanistan Asia       1987    40.8 13867957      852.
 9 Afghanistan Asia       1992    41.7 16317921      649.
10 Afghanistan Asia       1997    41.8 22227415      635.
# ℹ 386 more rows

Solo veo los países que están en Asia para entender cómo les va ahí sin mezclar con otros lugares.

4 Select rows where life expectancy is greater than 70.

Código

gapminder %>%
  filter(lifeExp > 70 )

# A tibble: 493 × 6
   country   continent  year lifeExp      pop gdpPercap
   <fct>     <fct>     <int>   <dbl>    <int>     <dbl>
 1 Albania   Europe     1982    70.4  2780097     3631.
 2 Albania   Europe     1987    72    3075321     3739.
 3 Albania   Europe     1992    71.6  3326498     2497.
 4 Albania   Europe     1997    73.0  3428038     3193.
 5 Albania   Europe     2002    75.7  3508512     4604.
 6 Albania   Europe     2007    76.4  3600523     5937.
 7 Algeria   Africa     2002    71.0 31287142     5288.
 8 Algeria   Africa     2007    72.3 33333216     6223.
 9 Argentina Americas   1987    70.8 31620918     9140.
10 Argentina Americas   1992    71.9 33958947     9308.
# ℹ 483 more rows

miro los qué países tienen una esperanza de vida arriba de 70 años, dónde la gente vive más tiempo.

5 Arrange the dataset by life expectancy in ascending order

Código

gapminder %>%
  arrange(lifeExp)

# A tibble: 1,704 × 6
   country      continent  year lifeExp     pop gdpPercap
   <fct>        <fct>     <int>   <dbl>   <int>     <dbl>
 1 Rwanda       Africa     1992    23.6 7290203      737.
 2 Afghanistan  Asia       1952    28.8 8425333      779.
 3 Gambia       Africa     1952    30    284320      485.
 4 Angola       Africa     1952    30.0 4232095     3521.
 5 Sierra Leone Africa     1952    30.3 2143249      880.
 6 Afghanistan  Asia       1957    30.3 9240934      821.
 7 Cambodia     Asia       1977    31.2 6978607      525.
 8 Mozambique   Africa     1952    31.3 6446316      469.
 9 Sierra Leone Africa     1957    31.6 2295678     1004.
10 Burkina Faso Africa     1952    32.0 4469979      543.
# ℹ 1,694 more rows

Ordeno los países desde los que tienen la esperanza de vida más baja hasta la más alta para ver quién está peor y quién mejor.

6 Arrange the dataset by GDP per capita in descending order.

Código

gapminder %>% 
  arrange(desc(gdpPercap))

# A tibble: 1,704 × 6
   country   continent  year lifeExp     pop gdpPercap
   <fct>     <fct>     <int>   <dbl>   <int>     <dbl>
 1 Kuwait    Asia       1957    58.0  212846   113523.
 2 Kuwait    Asia       1972    67.7  841934   109348.
 3 Kuwait    Asia       1952    55.6  160000   108382.
 4 Kuwait    Asia       1962    60.5  358266    95458.
 5 Kuwait    Asia       1967    64.6  575003    80895.
 6 Kuwait    Asia       1977    69.3 1140357    59265.
 7 Norway    Europe     2007    80.2 4627926    49357.
 8 Kuwait    Asia       2007    77.6 2505559    47307.
 9 Singapore Asia       2007    80.0 4553009    47143.
10 Norway    Europe     2002    79.0 4535591    44684.
# ℹ 1,694 more rows

Ordeno los países de mayor a menor ingreso por persona para ver cuáles son los más ricos.

7 Create a new column gdp_total as gdpPercap * pop.

Código

gapminder %>% 
  mutate(gdp_total=gdpPercap * pop)

# A tibble: 1,704 × 7
   country     continent  year lifeExp      pop gdpPercap    gdp_total
   <fct>       <fct>     <int>   <dbl>    <int>     <dbl>        <dbl>
 1 Afghanistan Asia       1952    28.8  8425333      779.  6567086330.
 2 Afghanistan Asia       1957    30.3  9240934      821.  7585448670.
 3 Afghanistan Asia       1962    32.0 10267083      853.  8758855797.
 4 Afghanistan Asia       1967    34.0 11537966      836.  9648014150.
 5 Afghanistan Asia       1972    36.1 13079460      740.  9678553274.
 6 Afghanistan Asia       1977    38.4 14880372      786. 11697659231.
 7 Afghanistan Asia       1982    39.9 12881816      978. 12598563401.
 8 Afghanistan Asia       1987    40.8 13867957      852. 11820990309.
 9 Afghanistan Asia       1992    41.7 16317921      649. 10595901589.
10 Afghanistan Asia       1997    41.8 22227415      635. 14121995875.
# ℹ 1,694 more rows
…
Código

gapminder %>%
  group_by(continent, year) %>%
  summarise(avg_gdpPercap = mean (gdpPercap))

`summarise()` has regrouped the output.
ℹ Summaries were computed grouped by continent and year.
ℹ Output is grouped by continent.
ℹ Use `summarise(.groups = "drop_last")` to silence this message.
ℹ Use `summarise(.by = c(continent, year))` for per-operation grouping
  (`?dplyr::dplyr_by`) instead.

# A tibble: 60 × 3
# Groups:   continent [5]
   continent  year avg_gdpPercap
   <fct>     <int>         <dbl>
 1 Africa     1952         1253.
 2 Africa     1957         1385.
 3 Africa     1962         1598.
 4 Africa     1967         2050.
 5 Africa     1972         2340.
 6 Africa     1977         2586.
 7 Africa     1982         2482.
 8 Africa     1987         2283.
 9 Africa     1992         2282.
10 Africa     1997         2379.
# ℹ 50 more rows
…
Calculo la mediana del ingreso por persona para cada continente, que ayuda a no dejarse llevar por números raros.

18 For each country, calculate the change in life expectancy between 1952 and 2007.

Código

gapminder %>%
 filter(year %in% c(1952, 2007)) %>%
 select(country, year, lifeExp) %>%
 pivot_wider(names_from = year, values_from = lifeExp) %>%
 mutate(change_lifeExp = `2007` - `1952`)

# A tibble: 142 × 4
   country     `1952` `2007` change_lifeExp
   <fct>        <dbl>  <dbl>          <dbl>
 1 Afghanistan   28.8   43.8           15.0
 2 Albania       55.2   76.4           21.2
 3 Algeria       43.1   72.3           29.2
 4 Angola        30.0   42.7           12.7
 5 Argentina     62.5   75.3           12.8
 6 Australia     69.1   81.2           12.1
 7 Austria       66.8   79.8           13.0
 8 Bahrain       50.9   75.6           24.7
 9 Bangladesh    37.5   64.1           26.6
10 Belgium       68     79.4           11.4
# ℹ 132 more rows
…
Busco los 5 países que más crecieron en ingreso por persona con el tiempo.

20 Notes Adittional

Código

gapminder %>%
  filter(year %in% c(1952, 2007)) %>%
  select(country, year, lifeExp) %>%
  pivot_wider(names_from = year, values_from = lifeExp) %>%
  mutate(change_lifeExp = `2007` - `1952`)

# A tibble: 142 × 4
   country     `1952` `2007` change_lifeExp
   <fct>        <dbl>  <dbl>          <dbl>
 1 Afghanistan   28.8   43.8           15.0
 2 Albania       55.2   76.4           21.2
 3 Algeria       43.1   72.3           29.2
 4 Angola        30.0   42.7           12.7
 5 Argentina     62.5   75.3           12.8
 6 Australia     69.1   81.2           12.1
 7 Austria       66.8   79.8           13.0
 8 Bahrain       50.9   75.6           24.7
 9 Bangladesh    37.5   64.1           26.6
10 Belgium       68     79.4           11.4
# ℹ 132 more rows
…
